{
  "Best": [
"Used Google search: How many days until Christmas? at 14.25 - 0.2 grams of CO2",
"Posted a photo on social media at 16.32 - 0.15g of CO2",
"Downloaded the new upgrade on IOS IPhone - 11 grams of CO2",
"Connected to apple car play at 21.39 - 14 grams of CO2",
"Used Snapchat at 08.23/ 11.21/ 13,48/ 15.32/ 19.27 and 22.14 - 3 gram CO2",
"Took 5 pictures on your Iphone - 40 gram CO2",
"Searched on how the weather is going to be next week - 1 gram of CO2"
  ]
}
